\relax 
\catcode `"\active 
\babel@aux{ngerman}{}
\@writefile{toc}{\contentsline {section}{\numberline {1}Das Projekt}{1}}
\newlabel{fig:toure:comp}{{1}{1}}
\@writefile{lof}{\contentsline {figure}{\numberline {1}{\ignorespaces Beispiel einer Kneipen Toure}}{1}}
\@writefile{toc}{\contentsline {section}{\numberline {2}Compilieren}{1}}
\@writefile{toc}{\contentsline {section}{\numberline {3}Programm bedienen}{2}}
\@writefile{lof}{\contentsline {figure}{\numberline {2}{\ignorespaces Beispiel einer Kneipen Toure mit Highlighting der Eigenschaften}}{3}}
\newlabel{fig:toure:mark}{{2}{3}}
\newlabel{LastPage}{{}{3}}
\xdef\lastpage@lastpage{3}
\gdef\lastpage@lastpageHy{}
